<B><FONT COLOR="#FF0000"><!--SUMMARY_BEGIN-->
<html> <!-- CCP4 HTML LOGFILE -->
<hr>
<!--SUMMARY_END--></FONT></B>
<B><FONT COLOR="#FF0000"><!--SUMMARY_BEGIN-->
<pre>
 
 ###############################################################
 ###############################################################
 ###############################################################
 ### CCP4 7.1.007: SC               version 7.1.007 :         ##
 ###############################################################
 User: ms005  Run date: 16/11/2020 Run time: 21:07:05 


 Please reference: Collaborative Computational Project, Number 4. 2011.
 "Overview of the CCP4 suite and current developments". Acta Cryst. D67, 235-242.
 as well as any specific reference in the program write-up.

<!--SUMMARY_END--></FONT></B>
 Sc (Version 2.0): A program for determining Shape Complementarity

 Copyright Michael Lawrence, Biomolecular Research Institute
 343 Royal Parade Parkville Victoria Australia

 This program is designed to compute Sc between two molecules.
 It also allows the normal products to be "merged" into grasp surface
 files for display in grasp.

 ___________________________________________________________________
   

FORMATTED      OLD     file opened on unit   7
<B><FONT COLOR="#FF0000"><!--SUMMARY_BEGIN-->
Logical name: SCRADII, Filename: /d/ccp4/ccp4-7.1/lib/data/sc_radii.lib
<!--SUMMARY_END--></FONT></B>

 Number of radii read from sc_radii file:   79

 Opening PDB input file with logical name XYZIN

  Logical name: XYZIN  File name: 1b3a_clean.pdb
  PDB file is being opened on unit 1 for INPUT.


  $WARNING: NO CRYST CARDS READ$

  $WARNING: NO SCALE CARDS READ$
<B><FONT COLOR="#FF0000"><!--SUMMARY_BEGIN-->
 
 $TEXT:Warning: $$ comment $$ 
 WARNING:  No Space group given on PDB CRYST1 line
 $$
<!--SUMMARY_END--></FONT></B>
<B><FONT COLOR="#FF0000"><!--SUMMARY_BEGIN-->
 
 $TEXT:Warning: $$ comment $$ 
 WARNING:  NO CRYST CARDS READ FROM XYZIN
 $$
<!--SUMMARY_END--></FONT></B>
<B><FONT COLOR="#FF0000"><!--SUMMARY_BEGIN-->
 
 $TEXT:Warning: $$ comment $$ 
 WARNING:  NO SCALE CARDS READ FROM XYZIN
 $$
<!--SUMMARY_END--></FONT></B>

UNFORMATTED    SCRATCH file opened on unit   7
<B><FONT COLOR="#FF0000"><!--SUMMARY_BEGIN-->
Logical name: SCTEMP, Filename: /tmp/ms005/sc_tmp.38115
<!--SUMMARY_END--></FONT></B>


 Number of atoms read from PDB file:      1090
   

 GRASP mode disabled - no Grasp output will be produced

 Selection commands:
 -------------------

  Molecule 1
  Number of atoms selected in chain B =    545

  Molecule 2
  Number of atoms selected in chain A =    545

 Parameter values
 ----------------
 Dot density          :    15.00 per square Angstrom
 Interface separation :     8.00 Angstroms
 Trim width           :     1.50 Angstroms
 Probe radius         :     1.70 Angstroms
 Weight factor        :     0.50 per square Angstrom

 Selected atoms:
 ---------------
  Number of atoms for first molecule       545
  Number of atoms for second molecule      545
  Total number of atoms                   1090
    
 Setting up atoms for surfacing:
  Potential interface atoms                406
  Blocked atoms                            684
  Atoms in Molecule 1                      545
  Atoms in Molecule 2                      545

 Output diagnostics from Connolly subroutine MDS:

UNFORMATTED    SCRATCH file opened on unit   7
<B><FONT COLOR="#FF0000"><!--SUMMARY_BEGIN-->
Logical name: SCDOTS, Filename: /tmp/ms005/sc_dots.38115
<!--SUMMARY_END--></FONT></B>

  Number of surface points: 
             Convex                      15640
             Toroidal                    19152
             Concave                     12105
             Total                       46897

  Surfacing complete.

 Statistics of surface point partitioning:

  Number of dots read =                              46897
  Number of dots read for molecule 1 =               23665
  Number of dots read for molecule 2 =               23232
  Number of dots buried for molecule 1 =             10026
  Number of dots accessible for molecule 1 =         13639
  Number of dots buried for molecule 2 =             10089
  Number of dots accessible for molecule 2 =         13143
  
 Removing peripheral band:

  Number of points left for molecule 1 after trim is  7025
  Total area left after trim for this molecule is   465.24 Angstrom^2.

  Number of points left for molecule 2 after trim is  6848
  Total area left after trim for this molecule is   455.27 Angstrom^2.

 Note: the value of Sc may become meaningless if the buried
 area is small, and it will not be a good measure for small
 crystal contacts.

$TABLE  : Distance between surfaces D(1->2) :
$GRAPHS :Area:N:1,3::Cumul_Area:N:1,4::Percentage:N:1,5::Cumul_Percentage:N:1,6:$$
 From    To     Area   Cumulative_Area   Percentage  Cumulative_Percentage $$ $$

 0.00   0.02     0.3         0.3            0.1               0.1
 0.02   0.04     1.1         1.3            0.2               0.3
 0.04   0.06     3.0         4.4            0.7               0.9
 0.06   0.08     5.5         9.9            1.2               2.1
 0.08   0.10    10.9        20.7            2.3               4.5
 0.10   0.12    13.1        33.8            2.8               7.3
 0.12   0.14    19.5        53.4            4.2              11.5
 0.14   0.16    20.7        74.1            4.5              15.9
 0.16   0.18    18.2        92.3            3.9              19.8
 0.18   0.20    17.9       110.3            3.9              23.7
 0.20   0.22    16.6       126.8            3.6              27.3
 0.22   0.24    14.8       141.7            3.2              30.4
 0.24   0.26    12.3       154.0            2.6              33.1
 0.26   0.28    12.1       166.0            2.6              35.7
 0.28   0.30    11.9       177.9            2.5              38.2
 0.30   0.32    10.7       188.5            2.3              40.5
 0.32   0.34    12.1       200.7            2.6              43.1
 0.34   0.36    11.1       211.7            2.4              45.5
 0.36   0.38     8.5       220.2            1.8              47.3
 0.38   0.40     8.1       228.3            1.7              49.1
 0.40   0.42     8.1       236.4            1.8              50.8
 0.42   0.44     8.7       245.1            1.9              52.7
 0.44   0.46     7.1       252.2            1.5              54.2
 0.46   0.48     7.9       260.1            1.7              55.9
 0.48   0.50     6.9       267.0            1.5              57.4
 0.50   0.52     7.0       274.0            1.5              58.9
 0.52   0.54     6.7       280.7            1.4              60.3
 0.54   0.56     6.4       287.1            1.4              61.7
 0.56   0.58     6.2       293.3            1.3              63.0
 0.58   0.60     5.2       298.5            1.1              64.2
 0.60   0.62     5.4       303.9            1.2              65.3
 0.62   0.64     4.8       308.7            1.0              66.3
 0.64   0.66     5.9       314.6            1.3              67.6
 0.66   0.68     5.4       319.9            1.2              68.8
 0.68   0.70     4.7       324.6            1.0              69.8
 0.70   0.72     4.3       328.9            0.9              70.7
 0.72   0.74     3.4       332.3            0.7              71.4
 0.74   0.76     4.4       336.8            1.0              72.4
 0.76   0.78     5.4       342.2            1.2              73.6
 0.78   0.80     3.4       345.6            0.7              74.3
 0.80   0.82     3.3       348.9            0.7              75.0
 0.82   0.84     4.2       353.1            0.9              75.9
 0.84   0.86     2.8       355.9            0.6              76.5
 0.86   0.88     3.4       359.3            0.7              77.2
 0.88   0.90     3.4       362.7            0.7              78.0
 0.90   0.92     3.6       366.3            0.8              78.7
 0.92   0.94     3.1       369.4            0.7              79.4
 0.94   0.96     3.4       372.8            0.7              80.1
 0.96   0.98     2.8       375.6            0.6              80.7
 0.98   1.00     2.5       378.2            0.5              81.3
 1.00   1.02     2.5       380.7            0.5              81.8
 1.02   1.04     2.3       382.9            0.5              82.3
 1.04   1.06     2.4       385.3            0.5              82.8
 1.06   1.08     2.5       387.8            0.5              83.3
 1.08   1.10     3.4       391.1            0.7              84.1
 1.10   1.12     2.9       394.0            0.6              84.7
 1.12   1.14     1.9       396.0            0.4              85.1
 1.14   1.16     2.1       398.0            0.4              85.6
 1.16   1.18     2.7       400.7            0.6              86.1
 1.18   1.20     2.3       403.1            0.5              86.6
 1.20   1.22     1.6       404.6            0.3              87.0
 1.22   1.24     2.3       406.9            0.5              87.5
 1.24   1.26     1.7       408.6            0.4              87.8
 1.26   1.28     2.0       410.6            0.4              88.3
 1.28   1.30     1.2       411.8            0.3              88.5
 1.30   1.32     1.6       413.4            0.3              88.9
 1.32   1.34     1.5       414.8            0.3              89.2
 1.34   1.36     2.2       417.0            0.5              89.6
 1.36   1.38     1.5       418.5            0.3              90.0
 1.38   1.40     1.6       420.1            0.3              90.3
 1.40   1.42     2.1       422.1            0.4              90.7
 1.42   1.44     1.3       423.4            0.3              91.0
 1.44   1.46     1.7       425.1            0.4              91.4
 1.46   1.48     1.4       426.5            0.3              91.7
 1.48   1.50     1.2       427.7            0.3              91.9
 1.50   1.52     1.3       428.9            0.3              92.2
 1.52   1.54     1.6       430.5            0.3              92.5
 1.54   1.56     0.9       431.5            0.2              92.7
 1.56   1.58     1.8       433.3            0.4              93.1
 1.58   1.60     1.4       434.6            0.3              93.4
 1.60   1.62     1.0       435.6            0.2              93.6
 1.62   1.64     0.8       436.4            0.2              93.8
 1.64   1.66     1.4       437.8            0.3              94.1
 1.66   1.68     1.3       439.1            0.3              94.4
 1.68   1.70     1.3       440.5            0.3              94.7
 1.70   1.72     0.7       441.2            0.2              94.8
 1.72   1.74     0.9       442.1            0.2              95.0
 1.74   1.76     0.9       442.9            0.2              95.2
 1.76   1.78     1.6       444.5            0.3              95.5
 1.78   1.80     1.2       445.7            0.3              95.8
 1.80   1.82     1.7       447.4            0.4              96.2
 1.82   1.84     0.7       448.1            0.2              96.3
 1.84   1.86     1.1       449.2            0.2              96.6
 1.86   1.88     1.0       450.2            0.2              96.8
 1.88   1.90     1.0       451.2            0.2              97.0
 1.90   1.92     0.9       452.1            0.2              97.2
 1.92   1.94     0.9       453.0            0.2              97.4
 1.94   1.96     0.9       453.9            0.2              97.6
 1.96   1.98     0.9       454.8            0.2              97.8
 1.98   2.00     0.9       455.7            0.2              98.0
 2.00   2.02     0.3       456.0            0.1              98.0
 2.02   2.04     0.9       456.9            0.2              98.2
 2.04   2.06     0.4       457.3            0.1              98.3
 2.06   2.08     0.3       457.6            0.1              98.4
 2.08   2.10     0.6       458.2            0.1              98.5
 2.10   2.12     0.5       458.8            0.1              98.6
 2.12   2.14     1.1       459.9            0.2              98.8
 2.14   2.16     0.3       460.1            0.1              98.9
 2.16   2.18     0.5       460.7            0.1              99.0
 2.18   2.20     0.4       461.1            0.1              99.1
 2.20   2.22     0.3       461.4            0.1              99.2
 2.22   2.24     0.3       461.7            0.1              99.2
 2.24   2.26     0.3       462.0            0.1              99.3
 2.26   2.28     0.3       462.3            0.1              99.4
 2.28   2.30     0.1       462.4            0.0              99.4
 2.30   2.32     0.1       462.5            0.0              99.4
 2.32   2.34     0.1       462.5            0.0              99.4
 2.34   2.36     0.3       462.8            0.1              99.5
 2.36   2.38     0.1       462.9            0.0              99.5
 2.38   2.40     0.1       463.1            0.0              99.5
 2.40   2.42     0.1       463.2            0.0              99.6
 2.42   2.44     0.1       463.3            0.0              99.6
 2.44   2.46     0.3       463.5            0.1              99.6
 2.46   2.48     0.2       463.7            0.0              99.7
 2.48   2.50     0.2       463.9            0.0              99.7
 2.50   2.52     0.0       463.9            0.0              99.7
 2.52   2.54     0.1       464.0            0.0              99.7
 2.54   2.56     0.1       464.1            0.0              99.8
 2.56   2.58     0.1       464.2            0.0              99.8
 2.58   2.60     0.1       464.2            0.0              99.8
 2.60   2.62     0.1       464.4            0.0              99.8
 2.62   2.64     0.1       464.4            0.0              99.8
 2.64   2.66     0.1       464.6            0.0              99.9
 2.66   2.68     0.1       464.7            0.0              99.9
 2.68   2.70     0.0       464.7            0.0              99.9
 2.70   2.72     0.1       464.8            0.0              99.9
 2.72   2.74     0.1       465.0            0.0              99.9
 2.74   2.76     0.0       465.0            0.0              99.9
 2.76   2.78     0.1       465.0            0.0             100.0
 2.78   2.80     0.0       465.0            0.0             100.0
 2.80   2.82     0.0       465.0            0.0             100.0
 2.82   2.84     0.1       465.2            0.0             100.0
 2.84   2.86     0.1       465.2            0.0             100.0
$$

 Mean separation:   surface 1 to surface 2 =  0.594 Angstroms
 Median separation: surface 1 to surface 2 =  0.411 Angstroms


$TABLE : Surface complementarity S(1->2) :
$GRAPHS :S(1->2):N:1,3: :Percentage:N:1,4: $$
  From      To     Number     Percentage     $$ $$

  1.00     0.98     197          2.8
  0.98     0.96     417          5.9
  0.96     0.94     433          6.2
  0.94     0.92     324          4.6
  0.92     0.90     318          4.5
  0.90     0.88     411          5.9
  0.88     0.86     324          4.6
  0.86     0.84     304          4.3
  0.84     0.82     233          3.3
  0.82     0.80     213          3.0
  0.80     0.78     207          2.9
  0.78     0.76     184          2.6
  0.76     0.74     174          2.5
  0.74     0.72     178          2.5
  0.72     0.70     154          2.2
  0.70     0.68     143          2.0
  0.68     0.66     148          2.1
  0.66     0.64     121          1.7
  0.64     0.62     111          1.6
  0.62     0.60     102          1.5
  0.60     0.58     127          1.8
  0.58     0.56     126          1.8
  0.56     0.54     107          1.5
  0.54     0.52     109          1.6
  0.52     0.50      91          1.3
  0.50     0.48      86          1.2
  0.48     0.46      86          1.2
  0.46     0.44      69          1.0
  0.44     0.42      71          1.0
  0.42     0.40      73          1.0
  0.40     0.38      83          1.2
  0.38     0.36      81          1.2
  0.36     0.34      76          1.1
  0.34     0.32      65          0.9
  0.32     0.30      60          0.9
  0.30     0.28      54          0.8
  0.28     0.26      67          1.0
  0.26     0.24      71          1.0
  0.24     0.22      58          0.8
  0.22     0.20      58          0.8
  0.20     0.18      88          1.3
  0.18     0.16     103          1.5
  0.16     0.14      60          0.9
  0.14     0.12      75          1.1
  0.12     0.10      79          1.1
  0.10     0.08      70          1.0
  0.08     0.06      55          0.8
  0.06     0.04      45          0.6
  0.04     0.02      61          0.9
  0.02    -0.00      37          0.5
 -0.00    -0.02      23          0.3
 -0.02    -0.04      11          0.2
 -0.04    -0.06       2          0.0
 -0.06    -0.08       1          0.0
 -0.08    -0.10       0          0.0
 -0.10    -0.12       1          0.0
$$

 Mean normal product:    surface 1 to surface 2 =  0.672
 Median normal product:  surface 1 to surface 2 =  0.766

$TABLE  : Distance between surfaces D(2->1) :
$GRAPHS :Area:N:1,3::Cumul_Area:N:1,4::Percentage:N:1,5::Cumul_Percentage:N:1,6:$$
 From    To     Area   Cumulative_Area   Percentage  Cumulative_Percentage $$ $$

 0.00   0.02     0.3         0.3            0.1               0.1
 0.02   0.04     1.1         1.3            0.2               0.3
 0.04   0.06     3.1         4.4            0.7               1.0
 0.06   0.08     5.5         9.8            1.2               2.2
 0.08   0.10    10.8        20.7            2.4               4.5
 0.10   0.12    12.6        33.3            2.8               7.3
 0.12   0.14    19.4        52.7            4.3              11.6
 0.14   0.16    19.7        72.4            4.3              15.9
 0.16   0.18    17.2        89.6            3.8              19.7
 0.18   0.20    17.2       106.7            3.8              23.4
 0.20   0.22    18.0       124.7            3.9              27.4
 0.22   0.24    12.8       137.4            2.8              30.2
 0.24   0.26    13.9       151.3            3.1              33.2
 0.26   0.28    11.8       163.1            2.6              35.8
 0.28   0.30    10.1       173.2            2.2              38.0
 0.30   0.32    11.4       184.6            2.5              40.5
 0.32   0.34    11.0       195.6            2.4              43.0
 0.34   0.36     9.3       204.9            2.0              45.0
 0.36   0.38     8.6       213.5            1.9              46.9
 0.38   0.40     9.0       222.5            2.0              48.9
 0.40   0.42     9.0       231.5            2.0              50.8
 0.42   0.44     6.7       238.2            1.5              52.3
 0.44   0.46     8.6       246.9            1.9              54.2
 0.46   0.48     6.4       253.3            1.4              55.6
 0.48   0.50     6.2       259.5            1.4              57.0
 0.50   0.52     6.3       265.9            1.4              58.4
 0.52   0.54     6.3       272.2            1.4              59.8
 0.54   0.56     7.8       280.0            1.7              61.5
 0.56   0.58     6.8       286.7            1.5              63.0
 0.58   0.60     6.0       292.7            1.3              64.3
 0.60   0.62     5.9       298.6            1.3              65.6
 0.62   0.64     4.9       303.4            1.1              66.6
 0.64   0.66     5.8       309.2            1.3              67.9
 0.66   0.68     5.1       314.3            1.1              69.0
 0.68   0.70     5.2       319.5            1.1              70.2
 0.70   0.72     5.4       324.9            1.2              71.4
 0.72   0.74     4.5       329.4            1.0              72.4
 0.74   0.76     4.3       333.7            0.9              73.3
 0.76   0.78     4.1       337.9            0.9              74.2
 0.78   0.80     3.5       341.3            0.8              75.0
 0.80   0.82     4.3       345.6            0.9              75.9
 0.82   0.84     4.2       349.8            0.9              76.8
 0.84   0.86     3.5       353.2            0.8              77.6
 0.86   0.88     3.1       356.3            0.7              78.3
 0.88   0.90     3.7       360.1            0.8              79.1
 0.90   0.92     2.6       362.7            0.6              79.7
 0.92   0.94     2.9       365.5            0.6              80.3
 0.94   0.96     2.9       368.4            0.6              80.9
 0.96   0.98     2.9       371.4            0.6              81.6
 0.98   1.00     3.1       374.5            0.7              82.3
 1.00   1.02     2.7       377.2            0.6              82.9
 1.02   1.04     2.3       379.5            0.5              83.4
 1.04   1.06     2.1       381.5            0.5              83.8
 1.06   1.08     2.5       384.1            0.6              84.4
 1.08   1.10     2.1       386.2            0.5              84.8
 1.10   1.12     2.8       389.0            0.6              85.4
 1.12   1.14     1.6       390.6            0.4              85.8
 1.14   1.16     2.7       393.3            0.6              86.4
 1.16   1.18     2.1       395.4            0.5              86.9
 1.18   1.20     2.3       397.7            0.5              87.4
 1.20   1.22     1.5       399.2            0.3              87.7
 1.22   1.24     1.1       400.2            0.2              87.9
 1.24   1.26     2.0       402.2            0.4              88.3
 1.26   1.28     1.5       403.7            0.3              88.7
 1.28   1.30     2.3       406.0            0.5              89.2
 1.30   1.32     2.0       408.0            0.4              89.6
 1.32   1.34     1.2       409.2            0.3              89.9
 1.34   1.36     0.9       410.1            0.2              90.1
 1.36   1.38     2.3       412.4            0.5              90.6
 1.38   1.40     1.1       413.5            0.2              90.8
 1.40   1.42     1.3       414.8            0.3              91.1
 1.42   1.44     1.2       416.0            0.3              91.4
 1.44   1.46     1.2       417.2            0.3              91.6
 1.46   1.48     1.3       418.5            0.3              91.9
 1.48   1.50     1.3       419.8            0.3              92.2
 1.50   1.52     1.6       421.4            0.4              92.6
 1.52   1.54     2.3       423.6            0.5              93.0
 1.54   1.56     1.1       424.7            0.2              93.3
 1.56   1.58     1.5       426.2            0.3              93.6
 1.58   1.60     0.9       427.0            0.2              93.8
 1.60   1.62     1.7       428.7            0.4              94.2
 1.62   1.64     1.1       429.8            0.2              94.4
 1.64   1.66     0.9       430.7            0.2              94.6
 1.66   1.68     0.9       431.6            0.2              94.8
 1.68   1.70     0.9       432.5            0.2              95.0
 1.70   1.72     1.2       433.7            0.3              95.3
 1.72   1.74     0.9       434.6            0.2              95.5
 1.74   1.76     0.9       435.5            0.2              95.7
 1.76   1.78     0.8       436.3            0.2              95.8
 1.78   1.80     0.7       437.0            0.1              96.0
 1.80   1.82     1.1       438.1            0.2              96.2
 1.82   1.84     1.3       439.3            0.3              96.5
 1.84   1.86     0.9       440.2            0.2              96.7
 1.86   1.88     0.9       441.0            0.2              96.9
 1.88   1.90     0.6       441.6            0.1              97.0
 1.90   1.92     0.7       442.3            0.1              97.2
 1.92   1.94     0.7       443.0            0.1              97.3
 1.94   1.96     0.5       443.5            0.1              97.4
 1.96   1.98     1.0       444.5            0.2              97.6
 1.98   2.00     0.9       445.4            0.2              97.8
 2.00   2.02     1.1       446.5            0.2              98.1
 2.02   2.04     0.6       447.1            0.1              98.2
 2.04   2.06     0.6       447.7            0.1              98.3
 2.06   2.08     0.5       448.2            0.1              98.4
 2.08   2.10     0.9       449.0            0.2              98.6
 2.10   2.12     0.5       449.6            0.1              98.7
 2.12   2.14     0.4       450.0            0.1              98.8
 2.14   2.16     0.3       450.3            0.1              98.9
 2.16   2.18     0.5       450.8            0.1              99.0
 2.18   2.20     0.3       451.0            0.1              99.1
 2.20   2.22     0.4       451.4            0.1              99.2
 2.22   2.24     0.3       451.7            0.1              99.2
 2.24   2.26     0.4       452.1            0.1              99.3
 2.26   2.28     0.1       452.2            0.0              99.3
 2.28   2.30     0.3       452.5            0.1              99.4
 2.30   2.32     0.2       452.7            0.0              99.4
 2.32   2.34     0.6       453.3            0.1              99.6
 2.34   2.36     0.1       453.4            0.0              99.6
 2.36   2.38     0.1       453.5            0.0              99.6
 2.38   2.40     0.1       453.6            0.0              99.6
 2.40   2.42     0.3       453.9            0.1              99.7
 2.42   2.44     0.1       453.9            0.0              99.7
 2.44   2.46     0.0       453.9            0.0              99.7
 2.46   2.48     0.2       454.1            0.0              99.8
 2.48   2.50     0.1       454.3            0.0              99.8
 2.50   2.52     0.1       454.3            0.0              99.8
 2.52   2.54     0.2       454.5            0.0              99.8
 2.54   2.56     0.0       454.5            0.0              99.8
 2.56   2.58     0.1       454.6            0.0              99.9
 2.58   2.60     0.1       454.7            0.0              99.9
 2.60   2.62     0.1       454.8            0.0              99.9
 2.62   2.64     0.1       454.9            0.0              99.9
 2.64   2.66     0.1       454.9            0.0              99.9
 2.66   2.68     0.1       455.0            0.0              99.9
 2.68   2.70     0.0       455.0            0.0              99.9
 2.70   2.72     0.1       455.1            0.0             100.0
 2.72   2.74     0.1       455.1            0.0             100.0
 2.74   2.76     0.1       455.3            0.0             100.0
$$

 Mean separation:   surface 2 to surface 1 =  0.586 Angstroms
 Median separation: surface 2 to surface 1 =  0.411 Angstroms


$TABLE : Surface complementarity S(2->1) :
$GRAPHS :S(2->1):N:1,3: :Percentage:N:1,4: $$
  From      To     Number     Percentage     $$ $$

  1.00     0.98     197          2.9
  0.98     0.96     402          5.9
  0.96     0.94     421          6.1
  0.94     0.92     351          5.1
  0.92     0.90     326          4.8
  0.90     0.88     373          5.4
  0.88     0.86     302          4.4
  0.86     0.84     293          4.3
  0.84     0.82     237          3.5
  0.82     0.80     235          3.4
  0.80     0.78     196          2.9
  0.78     0.76     203          3.0
  0.76     0.74     177          2.6
  0.74     0.72     171          2.5
  0.72     0.70     152          2.2
  0.70     0.68     152          2.2
  0.68     0.66     136          2.0
  0.66     0.64     151          2.2
  0.64     0.62     151          2.2
  0.62     0.60     111          1.6
  0.60     0.58      92          1.3
  0.58     0.56     107          1.6
  0.56     0.54     114          1.7
  0.54     0.52      94          1.4
  0.52     0.50      98          1.4
  0.50     0.48      92          1.3
  0.48     0.46      84          1.2
  0.46     0.44      80          1.2
  0.44     0.42      83          1.2
  0.42     0.40      72          1.1
  0.40     0.38      50          0.7
  0.38     0.36      52          0.8
  0.36     0.34      58          0.8
  0.34     0.32      56          0.8
  0.32     0.30      70          1.0
  0.30     0.28      54          0.8
  0.28     0.26      64          0.9
  0.26     0.24      54          0.8
  0.24     0.22      61          0.9
  0.22     0.20      46          0.7
  0.20     0.18      59          0.9
  0.18     0.16      65          0.9
  0.16     0.14      62          0.9
  0.14     0.12      64          0.9
  0.12     0.10      72          1.1
  0.10     0.08      86          1.3
  0.08     0.06      66          1.0
  0.06     0.04      60          0.9
  0.04     0.02      47          0.7
  0.02    -0.00      18          0.3
 -0.00    -0.02      17          0.2
 -0.02    -0.04       7          0.1
 -0.04    -0.06       2          0.0
 -0.06    -0.08       4          0.1
 -0.08    -0.10       0          0.0
 -0.10    -0.12       1          0.0
$$

 Mean normal product:    surface 2 to surface 1 =  0.682
 Median normal product:  surface 2 to surface 1 =  0.771


 Summary of results: 
________________________________________________________
           D(A->B)      D(B->A)     D(A->B)+D(B->A)/2 
 Mean       0.594        0.586            0.590
 Median     0.411        0.411            0.411

           S(A->B)      S(B->A)     S(A->B)+S(B->A)/2
 Mean       0.672        0.682            0.677
 Median     0.766        0.771            0.768

 Shape complementarity statistic Sc =    0.768
________________________________________________________

<B><FONT COLOR="#FF0000"><!--SUMMARY_BEGIN-->
 SC:  Normal termination
Times: User:       5.7s System:    0.0s Elapsed:     0:06  
</pre>
</html>
<!--SUMMARY_END--></FONT></B>
