#Rates were calculated using the expectation of the posterior rate distribution
#Prior distribution is Gamma with 16 discrete categories

#SEQ: the amino acid in the reference sequence in one letter code.
#SCORE: The conservation scores. lower value = higher conservation.
#QQ-INTERVAL: the confidence interval for the rate estimates. The default interval is 25-75 percentiles
#STD: the standard deviation of the posterior rate distribution.
#MSA DATA: The number of aligned sequences having an amino acid (non-gapped) from the overall number of sequences at each position.

#POS SEQ  SCORE    QQ-INTERVAL     STD      MSA DATA
#The alpha parameter 2.02229
    1     P   1.541   [0.7179, 2.462]  0.9016   29/99
    2     Y  0.2066   [-0.2779,0.7179]  0.7436   33/99
    3     S 0.06456   [-0.2779,0.3806]  0.4855   46/99
    4     S -0.1144   [-0.4431,0.1213]  0.3868   66/99
    5     D  0.5959   [0.3806,0.7179]  0.4951   71/99
    6     T 0.0004207   [-0.2779,0.3806]  0.4022   76/99
    7     T  0.1217   [-0.0928,0.3806]  0.3896   80/99
    8     P -0.0009707   [-0.2779,0.1213]  0.3567   84/99
    9     C  -1.505   [ -1.59,  -1.4]  0.1401   89/99
   10     C  -1.563   [ -1.59, -1.59] 0.07789   99/99
   11     F  0.2782   [-0.0928,0.7179]  0.4222   99/99
   12     A  0.2435   [-0.0928,0.3806]  0.3774   98/99
   13     Y -0.1756   [-0.4431,0.1213]  0.3522   99/99
   14     I  0.7864   [0.3806, 1.217]  0.4369   96/99
   15     A  0.3365   [0.1213,0.7179]  0.3565   99/99
   16     R   0.858   [0.7179, 1.217]  0.4295   99/99
   17     P  0.6155   [0.3806,0.7179]  0.4427   93/99
   18     L -0.4363   [-0.5928,-0.2779]  0.2905   99/99
   19     P -0.9705   [-1.124,-0.8661]  0.2281   99/99
   20     R   2.271   [ 2.462, 2.462]  0.4642   99/99
   21     A  0.8861   [0.7179, 1.217]  0.4328   99/99
   22     H  0.6317   [0.3806,0.7179]  0.4491   99/99
   23     I -0.5591   [-0.7333,-0.4431]  0.2641   99/99
   24     K   2.225   [ 2.462, 2.462]  0.5072   99/99
   25     E  0.0121   [-0.2779,0.1213]  0.3342   99/99
   26     Y -0.9805   [-1.124,-0.8661]  0.2587   99/99
   27     F  0.2583   [-0.0928,0.3806]  0.3991   99/99
   28     Y 0.00628   [-0.2779,0.1213]  0.3619   99/99
   29     T -0.9281   [-1.124,-0.8661]  0.2017   99/99
   30     S -0.7362   [-0.8661,-0.5928]  0.2214   99/99
   31     G -0.4592   [-0.5928,-0.2779]  0.2592   99/99
   32     K  0.3669   [0.1213,0.7179]  0.4193   94/99
   33     C  -1.561   [ -1.59, -1.59] 0.08233   95/99
   34     S -0.2989   [-0.4431,-0.0928]  0.3068   95/99
   35     N  0.5681   [0.3806,0.7179]  0.4042   99/99
   36     P -0.2037   [-0.4431,-0.0928]  0.3274   99/99
   37     A  -1.451   [ -1.59,  -1.4]  0.1383   99/99
   38     V  -1.214   [-1.256,-1.124]  0.1552   99/99
   39     V -0.9575   [-1.124,-0.8661]  0.1926   99/99
   40     F  -1.148   [-1.256,-0.9956]   0.214   99/99
   41     V   1.147   [0.7179, 1.217]  0.5827   99/99
   42     T  -1.266   [  -1.4,-1.124]  0.1493   99/99
   43     R 0.09144   [-0.0928,0.3806]  0.3601   99/99
   44     K  0.8381   [0.7179, 1.217]  0.4283   99/99
   45     N    1.06   [0.7179, 1.217]  0.5384   98/99
   46     R -0.1317   [-0.2779,0.1213]  0.3212   99/99
   47     Q   0.546   [0.3806,0.7179]  0.4051   99/99
   48     V -0.3959   [-0.5928,-0.2779]  0.2784   99/99
   49     C  -1.563   [ -1.59, -1.59] 0.07789   99/99
   50     A  -1.112   [-1.256,-0.9956]  0.1731   99/99
   51     N -0.6491   [-0.8661,-0.4431]  0.2456   99/99
   52     P  -1.328   [  -1.4,-1.256]  0.1824   99/99
   53     E  0.6835   [0.3806, 1.217]  0.4137   99/99
   54     K  0.7909   [0.3806, 1.217]   0.434   99/99
   55     K   2.321   [ 2.462, 2.462]  0.4046   99/99
   56     W -0.6004   [-0.8661,-0.4431]  0.3757   99/99
   57     V  -1.575   [ -1.59, -1.59]  0.0555   99/99
   58     R -0.6624   [-0.8661,-0.4431]  0.2444   99/99
   59     E   1.932   [ 1.217, 2.462]  0.6642   99/99
   60     Y  0.6337   [0.3806,0.7179]  0.4428   99/99
   61     I 0.05323   [-0.0928,0.3806]  0.3265   99/99
   62     N   1.569   [ 1.217, 2.462]  0.6741   99/99
   63     S   1.615   [ 1.217, 2.462]   0.692   99/99
   64     L   -1.21   [  -1.4,-1.124]  0.2078   95/99
   65     E -0.4713   [-0.7333,-0.2779]  0.3051   88/99
   66     M  0.5418   [0.1213,0.7179]  0.4993   72/99
   67     S -0.4686   [-0.7333,-0.2779]  0.4183   38/99
#Average = 0
#Standard Deviation = 1
